<?xml version="1.0" encoding="utf-8"?>
<!-- Generator: Adobe Illustrator 18.0.0, SVG Export Plug-In . SVG Version: 6.00 Build 0)  -->
<!DOCTYPE svg PUBLIC "-//W3C//DTD SVG 1.1//EN" "http://www.w3.org/Graphics/SVG/1.1/DTD/svg11.dtd">
<svg version="1.1" id="Layer_1" xmlns="http://www.w3.org/2000/svg" xmlns:xlink="http://www.w3.org/1999/xlink" x="0px" y="0px"
	 viewBox="0 0 841.9 595.3" enable-background="new 0 0 841.9 595.3" xml:space="preserve">
<g>
	<g>
		<path fill="#85AC1C" d="M233.6,570.8h-84c-24.5,0-45.5-17.5-45.5-45.5V332.7c0-24.5,21-45.5,45.5-45.5h84
			c24.5,0,45.5,21,45.5,45.5v192.6C279.1,553.3,258.1,570.8,233.6,570.8z M149.6,311.6c-10.5,0-17.5,10.5-17.5,21v192.6
			c0,10.5,10.5,21,21,21h84c10.5,0,21-10.5,21-21V332.7c0-10.5-10.5-21-21-21H149.6z"/>
	</g>
	<g>
		<path fill="#85AC1C" d="M608.3,595.3H380.7c-38.5,0-73.5-31.5-73.5-73.5V336.2c0-28,7-52.5,21-77l63-112.1c7-10.5,10.5-28,10.5-42
			l-7-59.5C394.7,28,405.2,14,419.2,7c10.5-3.5,21-7,28-7c28,0,63,14,77,87.5c7,28,10.5,52.5,0,122.6h147.1c3.5,0,3.5,0,7,0
			c31.5,3.5,56,35,56,73.5c0,14-3.5,28-10.5,42c10.5,10.5,17.5,28,17.5,49c0,24.5-10.5,45.5-24.5,56c0,3.5,0,7,0,10.5
			c0,24.5-3.5,56-42,70c0,7,0,14,0,14C671.3,563.8,643.3,595.3,608.3,595.3z M447.2,28c-7,0-14,0-17.5,3.5c-3.5,0-7,7-7,10.5l3.5,63
			c0,21-3.5,38.5-10.5,56l-63,112.1c-10.5,17.5-17.5,42-17.5,63v185.6c0,24.5,21,45.5,45.5,45.5h224.1c21,0,38.5-17.5,38.5-38.5
			c0-31.5,0-35,10.5-38.5c21-7,31.5-17.5,31.5-45.5c0-7,0-10.5-3.5-17.5c0-3.5,0-7,3.5-10.5c3.5-3.5,3.5-3.5,7-7
			c7,0,17.5-14,17.5-35c0-17.5-7-31.5-14-35c-3.5-3.5-7-3.5-7-10.5c0-3.5,0-7,3.5-10.5c7-10.5,14-21,14-35c0-24.5-14-45.5-35-45.5
			h-3.5H510.2c-3.5,0-7,0-10.5-3.5c-3.5-3.5-3.5-7-3.5-10.5c14-80.5,10.5-101.5,7-129.6C492.7,49,475.2,28,447.2,28z"/>
	</g>
</g>
</svg>
