<?xml version="1.0" encoding="utf-8"?>
<!-- Generator: Adobe Illustrator 16.0.0, SVG Export Plug-In . SVG Version: 6.00 Build 0)  -->
<!DOCTYPE svg PUBLIC "-//W3C//DTD SVG 1.1//EN" "http://www.w3.org/Graphics/SVG/1.1/DTD/svg11.dtd">
<svg version="1.1" xmlns="http://www.w3.org/2000/svg" xmlns:xlink="http://www.w3.org/1999/xlink" x="0px" y="0px"
	 width="19.639px" height="19.638px" viewBox="0 0 19.639 19.638" enable-background="new 0 0 19.639 19.638" xml:space="preserve">
<g id="Layer_1">
	<path fill="#30454F" d="M11.435,3.42c2.138,0,3.416,1.369,3.416,3.663c0,2.272-1.31,3.683-3.416,3.683H7.749h-0.25v0.25v1.824v0.25
		h0.25h3.454v0.887H7.749h-0.25v0.25v1.991H6.478v-1.991v-0.25h-0.25h-1.44V13.09h1.44h0.25v-0.25v-1.824v-0.25h-0.25h-1.44V9.879
		h1.44h0.25v-0.25V3.42H11.435 M7.499,9.879h0.25h3.533c1.548,0,2.549-1.09,2.549-2.776c0-1.673-1.024-2.796-2.549-2.796H7.749
		h-0.25v0.25v5.072V9.879 M11.435,3.17H6.228v6.459h-1.69v1.387h1.69v1.824h-1.69v1.387h1.69v2.241h1.521v-2.241h3.704V12.84H7.749
		v-1.824h3.687c2.297,0,3.666-1.558,3.666-3.933C15.101,4.69,13.732,3.17,11.435,3.17 M7.749,9.629V4.558h3.533
		c1.312,0,2.299,0.912,2.299,2.546c0,1.652-0.987,2.526-2.299,2.526H7.749z"/>
	<path fill="#30454F" d="M9.819,0.25c5.277,0,9.57,4.293,9.57,9.57c0,5.276-4.293,9.568-9.57,9.568
		c-5.276,0-9.569-4.292-9.569-9.568C0.25,4.543,4.543,0.25,9.819,0.25 M9.819,18.533c4.806,0,8.716-3.908,8.716-8.713
		c0-4.805-3.91-8.714-8.716-8.714c-4.805,0-8.714,3.909-8.714,8.714C1.105,14.625,5.014,18.533,9.819,18.533 M9.819,0
		C4.405,0,0,4.406,0,9.82s4.405,9.818,9.819,9.818c5.415,0,9.82-4.404,9.82-9.818S15.234,0,9.819,0 M9.819,18.283
		c-4.667,0-8.464-3.796-8.464-8.463s3.797-8.464,8.464-8.464c4.668,0,8.466,3.797,8.466,8.464S14.487,18.283,9.819,18.283"/>
</g>
<g id="Layer_2" display="none">
	<path display="inline" fill="#30454F" d="M6.228,14.227h-1.69V12.84h1.69v-1.824h-1.69V9.629h1.69V3.17h5.206
		c2.298,0,3.666,1.52,3.666,3.913c0,2.375-1.368,3.933-3.666,3.933H7.749v1.824h3.704v1.387H7.749v2.241H6.228V14.227z
		 M11.282,9.629c1.312,0,2.3-0.874,2.3-2.526c0-1.634-0.988-2.546-2.3-2.546H7.749v5.072H11.282z"/>
	<path display="inline" fill="#30454F" d="M9.819,19.638C4.405,19.638,0,15.234,0,9.819C0,4.406,4.405,0,9.819,0
		c5.415,0,9.82,4.405,9.82,9.819C19.639,15.234,15.234,19.638,9.819,19.638 M9.819,1.355c-4.667,0-8.464,3.797-8.464,8.464
		c0,4.667,3.797,8.463,8.464,8.463c4.668,0,8.466-3.796,8.466-8.463C18.285,5.152,14.487,1.355,9.819,1.355"/>
</g>
</svg>
