<?xml version="1.0" encoding="utf-8"?>
<!-- Generator: Adobe Illustrator 22.0.1, SVG Export Plug-In . SVG Version: 6.00 Build 0)  -->
<svg version="1.1" id="Layer_1" xmlns="http://www.w3.org/2000/svg" xmlns:xlink="http://www.w3.org/1999/xlink" x="0px" y="0px"
	 viewBox="0 0 14 12.6" style="enable-background:new 0 0 14 12.6;" xml:space="preserve">
<style type="text/css">
	.st0{fill:#30454F;}
	.st1{fill:#DDB10A;}
	.st2{fill:#79AD36;}
	.st3{fill:#CE181E;}
	.st4{fill:#76C37C;}
	.st5{fill:#3A65A3;}
	.st6{fill:#FFD650;}
	.st7{fill:#D14B8F;}
	.st8{fill:#30464F;}
	.st9{fill:none;stroke:#30454F;stroke-width:0.25;stroke-miterlimit:10;}
	.st10{fill:none;stroke:#30454F;stroke-width:0.75;stroke-linecap:round;stroke-linejoin:round;stroke-miterlimit:10;}
	.st11{fill:none;stroke:#79AD36;stroke-width:0.75;stroke-linecap:round;stroke-linejoin:round;stroke-miterlimit:10;}
	.st12{fill:none;stroke:#CE181E;stroke-width:0.75;stroke-linecap:round;stroke-linejoin:round;stroke-miterlimit:10;}
	.st13{fill:none;stroke:#CE181E;stroke-linecap:round;stroke-linejoin:round;stroke-miterlimit:10;}
</style>
<g>
	<path class="st2" d="M8.7,0.2c0.5,0.3,0.9,0.9,1,1.8c0.1,0.6,0.1,1.1,0,2.3h2.7v0c0,0,0,0,0.1,0l0,0c0.8,0,1.4,0.8,1.4,1.7
		c0,0.3-0.1,0.6-0.2,0.8c0.2,0.3,0.3,0.6,0.3,1c0,0.5-0.2,1-0.5,1.3c0,0,0,0.1,0,0.1c0,0.3,0,1.2-0.8,1.6c0,0.1,0,0.2,0,0.2
		c0,0.9-0.7,1.6-1.6,1.6H6.5c-0.9,0-1.7-0.8-1.7-1.7V7.1c0-0.6,0.1-1.2,0.4-1.7l1.3-2.3c0.1-0.2,0.2-0.5,0.2-0.7L6.6,1.1
		c0-0.5,0.2-0.9,0.7-1C7.4,0,7.7,0,7.9,0C8.1,0,8.4,0.1,8.7,0.2z M11.1,11.6c0.3,0,0.6-0.3,0.6-0.6c0-0.7,0-0.9,0.4-1
		c0.3-0.1,0.4-0.2,0.4-0.7c0-0.1,0-0.2,0-0.3c0-0.1,0-0.3,0.1-0.4c0.1-0.1,0.2-0.2,0.3-0.2c0,0,0.2-0.2,0.2-0.5
		c0-0.3-0.1-0.5-0.2-0.5c-0.1-0.1-0.2-0.2-0.3-0.4c0-0.2,0-0.3,0.1-0.4c0.1-0.1,0.2-0.3,0.2-0.6c0-0.4-0.2-0.7-0.5-0.7c0,0,0,0,0,0
		H9.1c-0.1,0-0.3-0.1-0.4-0.2C8.6,5,8.5,4.9,8.6,4.7c0.3-1.6,0.2-2,0.1-2.5c-0.1-0.6-0.3-1-0.6-1.1C8,1,7.8,1,7.6,1.1l0.1,1.3
		c0,0.4-0.1,0.9-0.3,1.3L6.1,5.9C5.9,6.2,5.8,6.7,5.8,7.1v3.8c0,0.4,0.3,0.7,0.7,0.7H11.1z M4,7v4c0,0.6-0.5,1.2-1.2,1.2H1.2
		c-0.6,0-1.2-0.5-1.2-1.2V7c0-0.6,0.5-1.2,1.2-1.2h1.7C3.5,5.8,4,6.3,4,7z M2.9,11.1C3,11.1,3,11,3,10.9V7C3,6.9,3,6.8,2.9,6.8H1.2
		C1.1,6.8,1,6.9,1,7v4c0,0.1,0.1,0.2,0.2,0.2H2.9z"/>
</g>
</svg>
